Homework-03
…
# Show worst hours
worst_hours

# A tibble: 48 × 6
# Groups:   year, month, day [17]
    year month   day  hour avg_dep_delay n_flights
   <int> <int> <int> <dbl>         <dbl>     <int>
 1  2013     4    10    20          170.        31
 2  2013     4    10    21          168.        17
 3  2013     7    28    19          156.        54
 4  2013     4    10    19          152.        41
 5  2013     4    19    19          150.        53
 6  2013     6    28    21          149.        26
 7  2013     9    12    17          147.        45
 8  2013     9     2    16          144.        45
 9  2013     7    10    19          144.        43
10  2013     9    12    20          143.        26
# ℹ 38 more rows
…
# Get weather data for worst hours
worst_hours_weather <- weather %>%
  # Create datetime column in weather
  mutate(datetime = make_datetime_from_components(year, month, day, hour)) %>%
  # Join with worst hours
  inner_join(worst_hours, by = c("datetime", "year", "month", "day", "hour")) %>%
  # Select needed columns
  select(datetime, origin, temp, humid, precip, visib, wind_speed, wind_dir, avg_dep_delay)

# Show weather during the worst delay hours
worst_hours_weather

# A tibble: 143 × 9
   datetime            origin  temp humid precip visib wind_speed wind_dir
   <dttm>              <chr>  <dbl> <dbl>  <dbl> <dbl>      <dbl>    <dbl>
 1 2013-03-08 10:00:00 EWR     32    95.7   0.19  0.5       15.0       340
 2 2013-03-08 11:00:00 EWR     32    95.7   0.13  0.75      13.8       340
 3 2013-03-08 12:00:00 EWR     33.8  95.8   0.06  1          9.21      320
 4 2013-03-08 13:00:00 EWR     34.0  93.0   0.06  1.75      10.4       340
 5 2013-03-08 17:00:00 EWR     39.9  76.3   0    10         13.8       360
 6 2013-03-18 19:00:00 EWR     32    95.7   0.11  0.75      11.5        70
 7 2013-03-18 21:00:00 EWR     33.8  95.8   0.09  3          8.06       60
 8 2013-04-10 19:00:00 EWR     59    83.3   0.17  9         12.7       120
 9 2013-04-10 20:00:00 EWR     57.9  86.6   0.05 10          0           0
10 2013-04-10 21:00:00 EWR     57.2  87.7   0    10          6.90      210
# ℹ 133 more rows
# ℹ 1 more variable: avg_dep_delay <dbl>
…
